…
The data contains the following fields

``` r
cade_2014to2022 %>% colnames() %>% tibble(colnames = .)
```

    ## # A tibble: 24 x 1
    ##    colnames                   
    ##    <chr>                      
    ##  1 portfolio_date             
    ##  2 facility_id                
    ##  3 Call_Code                  
    ##  4 shadow_balance             
    ##  5 cmt_available              
    ##  6 Past_Due_in_Days           
    ##  7 Accural_Status.Non.Accrual.
    ##  8 Collateral_Code            
    ##  9 Collateral_Value           
    ## 10 scorecard                  
    ## # ... with 14 more rows
…
