…
Monthly data allows us to identify the first time a borrower goes
30/60/90 days past due. With quarterly data, we can still achieve that
goal, but our level of precision is lower.

Within our data, we have the following columns:

``` r
cade_2014to2022 %>% colnames() %>% tibble(df_colnames = .)
```

    ## # A tibble: 24 x 1
    ##    df_colnames                
    ##    <chr>                      
    ##  1 portfolio_date             
    ##  2 facility_id                
    ##  3 Call_Code                  
    ##  4 shadow_balance             
    ##  5 cmt_available              
    ##  6 Past_Due_in_Days           
    ##  7 Accural_Status.Non.Accrual.
    ##  8 Collateral_Code            
    ##  9 Collateral_Value           
    ## 10 scorecard                  
    ## # ... with 14 more rows
…
