…
    rf_model <-    rand_forest(mode = "regression") %>% 
                    set_engine(engine = "ranger", importance = "impurity")

    #use the knn spec to fit the pre-processed training data
    linear_fit <- 
      workflow() %>% 
      add_recipe(df_recipe) %>% 
      add_model(linear_model) %>% 
      fit(data = df_train)

    print(tidy(linear_fit)) 

    ## # A tibble: 25 × 5
    ##    term                     estimate std.error statistic  p.value
    ##    <chr>                       <dbl>     <dbl>     <dbl>    <dbl>
    ##  1 (Intercept)              0.564      0.0218     25.9   3.75e-97
    ##  2 days_before              0.000689   0.00470     0.147 8.83e- 1
    ##  3 age                     -0.0833     0.00571   -14.6   5.76e-41
    ##  4 new_student_pct          0.0354     0.00547     6.47  2.22e-10
    ##  5 over_6_month_pct         0.0575     0.00587     9.81  5.09e-21
    ##  6 class_category_Cycling  -0.0123     0.0143     -0.858 3.91e- 1
    ##  7 class_category_HIIT     -0.0118     0.0143     -0.829 4.07e- 1
    ##  8 class_category_Strength  0.00311    0.0134      0.231 8.17e- 1
    ##  9 class_category_Yoga      0.00371    0.0136      0.272 7.86e- 1
    ## 10 class_capacity_X25       0.0253     0.0173      1.46  1.44e- 1
    ## # … with 15 more rows
…
